division_sim.vcd
$date
	Sat Jan 31 19:28:27 2026
$end
$version
	Icarus Verilog
$end
$timescale
	1ps
$end
$scope module non_rest_div_tb $end
$var wire 8 ! remainder [7:0] $end
$var wire 8 " quotient [7:0] $end
$var wire 1 # done $end
$var reg 1 $ clk $end
$var reg 8 % divident [7:0] $end
$var reg 8 & divisor [7:0] $end
$var reg 1 ' rst $end
$var reg 1 ( start $end
$scope module uut $end
$var wire 1 $ clk $end
$var wire 8 ) divident [7:0] $end
$var wire 8 * divisor [7:0] $end
$var wire 1 ' rst $end
$var wire 1 ( start $end
$var wire 8 + minus_m [7:0] $end
$var parameter 3 , ADD_SUB $end
$var parameter 3 - DONE $end
$var parameter 3 . IDLE $end
$var parameter 3 / LOAD $end
$var parameter 3 0 SHIFT $end
$var reg 9 1 acc [8:0] $end
$var reg 1 # done $end
$var reg 8 2 m [7:0] $end
$var reg 4 3 n [3:0] $end
$var reg 8 4 q [7:0] $end
$var reg 8 5 quotient [7:0] $end
$var reg 8 6 remainder [7:0] $end
$var reg 3 7 state [2:0] $end
$upscope $end
$scope task perform_division $end
$var reg 8 8 a [7:0] $end
$var reg 8 9 b [7:0] $end
$upscope $end
$upscope $end
$enddefinitions $end
$comment Show the parameter values. $end
$dumpall
b10 0
b1 /
b0 .
b101 -
b11 ,
$end
#0
$dumpvars
bx 9
bx 8
b0 7
bx 6
bx 5
b0 4
b0 3
b0 2
b0 1
b0 +
b0 *
b0 )
0(
1'
b0 &
b0 %
0$
0#
bx "
bx !
$end
#5000
1$
#10000
0$
#15000
1$
#20000
0$
0'
#25000
1$
#30000
0$
b11 9
b10100 8
#35000
b1 7
1(
b11 &
b11 *
b10100 %
b10100 )
1$
#40000
0$
#45000
b11111101 +
b1000 3
b10 7
b11 2
b10100 4
0(
1$
#50000
0$
#55000
b11 7
b101000 4
1$
#60000
0$
#65000
b10 7
b111 3
b101001 4
b111111101 1
1$
#70000
0$
#75000
b11 7
b111111010 1
b1010010 4
1$
#80000
0$
#85000
b10 7
b110 3
b1010011 4
b111110111 1
1$
#90000
0$
#95000
b11 7
b111101110 1
b10100110 4
1$
#100000
0$
#105000
b10 7
b101 3
b10100111 4
b111101011 1
1$
#110000
0$
#115000
b11 7
b111010111 1
b1001110 4
1$
#120000
0$
#125000
b10 7
b100 3
b1001111 4
b111010100 1
1$
#130000
0$
#135000
b11 7
b110101000 1
b10011110 4
1$
#140000
0$
#145000
b10 7
b11 3
b10011111 4
b110100101 1
1$
#150000
0$
#155000
b11 7
b101001011 1
b111110 4
1$
#160000
0$
#165000
b10 7
b10 3
b111111 4
b101001000 1
1$
#170000
0$
#175000
b11 7
b10010000 1
b1111110 4
1$
#180000
0$
#185000
b10 7
b1 3
b1111111 4
b10001101 1
1$
#190000
0$
#195000
b11 7
b100011010 1
b11111110 4
1$
#200000
0$
#205000
b101 7
b11111111 4
b100010111 1
1$
#210000
0$
#215000
b0 7
1#
b11111111 "
b11111111 5
b11010 !
b11010 6
1$
#220000
0$
#225000
0#
1$
#230000
0$
#235000
b1010 9
b1100100 8
1$
#240000
0$
#245000
b1 7
1(
b1010 &
b1010 *
b1100100 %
b1100100 )
1$
#250000
0$
#255000
b11110110 +
b1000 3
b10 7
b1010 2
b1100100 4
b0 1
0(
1$
#260000
0$
#265000
b11 7
b11001000 4
1$
#270000
0$
#275000
b10 7
b111 3
b11001001 4
b111110110 1
1$
#280000
0$
#285000
b11 7
b111101101 1
b10010010 4
1$
#290000
0$
#295000
b10 7
b110 3
b10010011 4
b111100011 1
1$
#300000
0$
#305000
b11 7
b111000111 1
b100110 4
1$
#310000
0$
#315000
b10 7
b101 3
b100111 4
b110111101 1
1$
#320000
0$
#325000
b11 7
b101111010 1
b1001110 4
1$
#330000
0$
#335000
b10 7
b100 3
b1001111 4
b101110000 1
1$
#340000
0$
#345000
b11 7
b11100000 1
b10011110 4
1$
#350000
0$
#355000
b10 7
b11 3
b10011111 4
b11010110 1
1$
#360000
0$
#365000
b11 7
b110101101 1
b111110 4
1$
#370000
0$
#375000
b10 7
b10 3
b111111 4
b110100011 1
1$
#380000
0$
#385000
b11 7
b101000110 1
b1111110 4
1$
#390000
0$
#395000
b10 7
b1 3
b1111111 4
b100111100 1
1$
#400000
0$
#405000
b11 7
b1111000 1
b11111110 4
1$
#410000
0$
#415000
b101 7
b11111111 4
b1101110 1
1$
#420000
0$
#425000
b0 7
1#
b1101110 !
b1101110 6
1$
#430000
0$
#435000
0#
1$
#440000
0$
#445000
b101 9
b11111111 8
1$
#450000
0$
#455000
b1 7
1(
b101 &
b101 *
b11111111 %
b11111111 )
1$
#460000
0$
#465000
b11111011 +
b1000 3
b10 7
b101 2
b0 1
0(
1$
#470000
0$
#475000
b11 7
b1 1
b11111110 4
1$
#480000
0$
#485000
b10 7
b111 3
b11111111 4
b111111100 1
1$
#490000
0$
#495000
b11 7
b111111001 1
b11111110 4
1$
#500000
0$
#505000
b10 7
b110 3
b11111111 4
b111110100 1
1$
#510000
0$
#515000
b11 7
b111101001 1
b11111110 4
1$
#520000
0$
#525000
b10 7
b101 3
b11111111 4
b111100100 1
1$
#530000
0$
#535000
b11 7
b111001001 1
b11111110 4
1$
#540000
0$
#545000
b10 7
b100 3
b11111111 4
b111000100 1
1$
#550000
0$
#555000
b11 7
b110001001 1
b11111110 4
1$
#560000
0$
#565000
b10 7
b11 3
b11111111 4
b110000100 1
1$
#570000
0$
#575000
b11 7
b100001001 1
b11111110 4
1$
#580000
0$
#585000
b10 7
b10 3
b11111111 4
b100000100 1
1$
#590000
0$
#595000
b11 7
b1001 1
b11111110 4
1$
#600000
0$
#605000
b10 7
b1 3
b11111111 4
b100 1
1$
#610000
0$
#615000
b11 7
b1001 1
b11111110 4
1$
#620000
0$
#625000
b101 7
b11111111 4
b100 1
1$
#630000
0$
#635000
b0 7
1#
b100 !
b100 6
1$
#640000
0$
#645000
0#
1$
#650000
0$
#655000
b1100 9
b101 8
1$
#660000
0$
#665000
b1 7
1(
b1100 &
b1100 *
b101 %
b101 )
1$
#670000
0$
#675000
b11110100 +
b1000 3
b10 7
b1100 2
b101 4
b0 1
0(
1$
#680000
0$
#685000
b11 7
b1010 4
1$
#690000
0$
#695000
b10 7
b111 3
b1011 4
b111110100 1
1$
#700000
0$
#705000
b11 7
b111101000 1
b10110 4
1$
#710000
0$
#715000
b10 7
b110 3
b10111 4
b111011100 1
1$
#720000
0$
#725000
b11 7
b110111000 1
b101110 4
1$
#730000
0$
#735000
b10 7
b101 3
b101111 4
b110101100 1
1$
#740000
0$
#745000
b11 7
b101011000 1
b1011110 4
1$
#750000
0$
#755000
b10 7
b100 3
b1011111 4
b101001100 1
1$
#760000
0$
#765000
b11 7
b10011000 1
b10111110 4
1$
#770000
0$
#775000
b10 7
b11 3
b10111111 4
b10001100 1
1$
#780000
0$
#785000
b11 7
b100011001 1
b1111110 4
1$
#790000
0$
#795000
b10 7
b10 3
b1111111 4
b100001101 1
1$
#800000
0$
#805000
b11 7
b11010 1
b11111110 4
1$
#810000
0$
#815000
b10 7
b1 3
b11111111 4
b1110 1
1$
#820000
0$
#825000
b11 7
b11101 1
b11111110 4
1$
#830000
0$
#835000
b101 7
b11111111 4
b10001 1
1$
#840000
0$
#845000
b0 7
1#
b10001 !
b10001 6
1$
#850000
0$
#855000
0#
1$
