fetch_unit_tb.vcd
$date
	Thu Mar 19 23:48:10 2026
$end
$version
	Icarus Verilog
$end
$timescale
	1s
$end
$scope module fetch_unit_tb $end
$var wire 32 ! instr_out [31:0] $end
$var reg 1 " clk $end
$var reg 32 # instr_in [31:0] $end
$var reg 6 $ read_addr [5:0] $end
$var reg 1 % reset $end
$var reg 1 & write_enable $end
$var integer 32 ' i [31:0] $end
$scope module uut $end
$var wire 1 " clk $end
$var wire 32 ( instr_in [31:0] $end
$var wire 32 ) instr_out [31:0] $end
$var wire 6 * read_addr [5:0] $end
$var wire 1 % reset $end
$var wire 1 & write_enable $end
$var reg 6 + counter [5:0] $end
$upscope $end
$upscope $end
$enddefinitions $end
$comment Show the parameter values. $end
$dumpall
$end
#0
$dumpvars
b0 +
b0 *
bx )
b0 (
bx '
0&
1%
b0 $
b0 #
0"
bx !
$end
#5
1"
#10
0"
b10100000000000000000000000000000 #
b10100000000000000000000000000000 (
b0 '
1&
0%
#15
b10100000000000000000000000000000 !
b10100000000000000000000000000000 )
b1 +
1"
#20
0"
b10100000000000000000000000000001 #
b10100000000000000000000000000001 (
b1 '
#25
b10 +
1"
#30
0"
b10100000000000000000000000000010 #
b10100000000000000000000000000010 (
b10 '
#35
b11 +
1"
#40
0"
b10100000000000000000000000000011 #
b10100000000000000000000000000011 (
b11 '
#45
b100 +
1"
#50
0"
b10100000000000000000000000000100 #
b10100000000000000000000000000100 (
b100 '
#55
b101 +
1"
#60
0"
b10100000000000000000000000000101 #
b10100000000000000000000000000101 (
b101 '
#65
b110 +
1"
#70
0"
b10100000000000000000000000000110 #
b10100000000000000000000000000110 (
b110 '
#75
b111 +
1"
#80
0"
b10100000000000000000000000000111 #
b10100000000000000000000000000111 (
b111 '
#85
b1000 +
1"
#90
0"
b10100000000000000000000000001000 #
b10100000000000000000000000001000 (
b1000 '
#95
b1001 +
1"
#100
0"
b10100000000000000000000000001001 #
b10100000000000000000000000001001 (
b1001 '
#105
b1010 +
1"
#110
0"
b10100000000000000000000000001010 #
b10100000000000000000000000001010 (
b1010 '
#115
b1011 +
1"
#120
0"
b10100000000000000000000000001011 #
b10100000000000000000000000001011 (
b1011 '
#125
b1100 +
1"
#130
0"
b10100000000000000000000000001100 #
b10100000000000000000000000001100 (
b1100 '
#135
b1101 +
1"
#140
0"
b10100000000000000000000000001101 #
b10100000000000000000000000001101 (
b1101 '
#145
b1110 +
1"
#150
0"
b10100000000000000000000000001110 #
b10100000000000000000000000001110 (
b1110 '
#155
b1111 +
1"
#160
0"
b10100000000000000000000000001111 #
b10100000000000000000000000001111 (
b1111 '
#165
b10000 +
1"
#170
0"
b10100000000000000000000000010000 #
b10100000000000000000000000010000 (
b10000 '
#175
b10001 +
1"
#180
0"
b10100000000000000000000000010001 #
b10100000000000000000000000010001 (
b10001 '
#185
b10010 +
1"
#190
0"
b10100000000000000000000000010010 #
b10100000000000000000000000010010 (
b10010 '
#195
b10011 +
1"
#200
0"
b10100000000000000000000000010011 #
b10100000000000000000000000010011 (
b10011 '
#205
b10100 +
1"
#210
0"
b10100000000000000000000000010100 #
b10100000000000000000000000010100 (
b10100 '
#215
b10101 +
1"
#220
0"
b10100000000000000000000000010101 #
b10100000000000000000000000010101 (
b10101 '
#225
b10110 +
1"
#230
0"
b10100000000000000000000000010110 #
b10100000000000000000000000010110 (
b10110 '
#235
b10111 +
1"
#240
0"
b10100000000000000000000000010111 #
b10100000000000000000000000010111 (
b10111 '
#245
b11000 +
1"
#250
0"
b10100000000000000000000000011000 #
b10100000000000000000000000011000 (
b11000 '
#255
b11001 +
1"
#260
0"
b10000000000000000000001000011 #
b10000000000000000000001000011 (
b11001 '
#265
b11010 +
1"
#270
0"
0&
#275
1"
#280
0"
#285
1"
#290
0"
b10100000000000000000000000000001 !
b10100000000000000000000000000001 )
b1 $
b1 *
#295
1"
#300
0"
b10100000000000000000000000000010 !
b10100000000000000000000000000010 )
b10 $
b10 *
#305
1"
#310
0"
b10100000000000000000000000010101 !
b10100000000000000000000000010101 )
b10101 $
b10101 *
#315
1"
#320
0"
b10100000000000000000000000000011 !
b10100000000000000000000000000011 )
b11 $
b11 *
#325
1"
#330
0"
b10000000000000000000001000011 !
b10000000000000000000001000011 )
b11001 $
b11001 *
