left_shift_pipe.vcd
$date
	Tue Feb 24 23:46:17 2026
$end
$version
	Icarus Verilog
$end
$timescale
	1s
$end
$scope module left_shift_pipe_tb $end
$var wire 8 ! out [7:0] $end
$var reg 1 " clk $end
$var reg 8 # in [7:0] $end
$var reg 1 $ rst $end
$var reg 3 % s [2:0] $end
$scope module dut $end
$var wire 1 " clk $end
$var wire 8 & in [7:0] $end
$var wire 1 $ rst $end
$var wire 3 ' s [2:0] $end
$var wire 1 ( w9 $end
$var wire 1 ) w8 $end
$var wire 1 * w7 $end
$var wire 1 + w6 $end
$var wire 1 , w5 $end
$var wire 1 - w4 $end
$var wire 1 . w3 $end
$var wire 1 / w2 $end
$var wire 1 0 w15 $end
$var wire 1 1 w14 $end
$var wire 1 2 w13 $end
$var wire 1 3 w12 $end
$var wire 1 4 w11 $end
$var wire 1 5 w10 $end
$var wire 1 6 w1 $end
$var wire 1 7 w0 $end
$var wire 8 8 out [7:0] $end
$var reg 1 9 r0 $end
$var reg 1 : r1 $end
$var reg 1 ; r10 $end
$var reg 1 < r11 $end
$var reg 1 = r12 $end
$var reg 1 > r13 $end
$var reg 1 ? r14 $end
$var reg 1 @ r15 $end
$var reg 1 A r2 $end
$var reg 1 B r3 $end
$var reg 1 C r4 $end
$var reg 1 D r5 $end
$var reg 1 E r6 $end
$var reg 1 F r7 $end
$var reg 1 G r8 $end
$var reg 1 H r9 $end
$var reg 3 I s1 [2:0] $end
$var reg 3 J s2 [2:0] $end
$scope module m0 $end
$var wire 1 K in0 $end
$var wire 1 L in1 $end
$var wire 1 M sel $end
$var wire 1 7 y $end
$upscope $end
$scope module m1 $end
$var wire 1 N in0 $end
$var wire 1 O in1 $end
$var wire 1 P sel $end
$var wire 1 6 y $end
$upscope $end
$scope module m10 $end
$var wire 1 A in0 $end
$var wire 1 9 in1 $end
$var wire 1 Q sel $end
$var wire 1 5 y $end
$upscope $end
$scope module m11 $end
$var wire 1 B in0 $end
$var wire 1 : in1 $end
$var wire 1 R sel $end
$var wire 1 4 y $end
$upscope $end
$scope module m12 $end
$var wire 1 C in0 $end
$var wire 1 A in1 $end
$var wire 1 S sel $end
$var wire 1 3 y $end
$upscope $end
$scope module m13 $end
$var wire 1 D in0 $end
$var wire 1 B in1 $end
$var wire 1 T sel $end
$var wire 1 2 y $end
$upscope $end
$scope module m14 $end
$var wire 1 E in0 $end
$var wire 1 C in1 $end
$var wire 1 U sel $end
$var wire 1 1 y $end
$upscope $end
$scope module m15 $end
$var wire 1 F in0 $end
$var wire 1 D in1 $end
$var wire 1 V sel $end
$var wire 1 0 y $end
$upscope $end
$scope module m16 $end
$var wire 1 G in0 $end
$var wire 1 W in1 $end
$var wire 1 X sel $end
$var wire 1 Y y $end
$upscope $end
$scope module m17 $end
$var wire 1 H in0 $end
$var wire 1 Z in1 $end
$var wire 1 [ sel $end
$var wire 1 \ y $end
$upscope $end
$scope module m18 $end
$var wire 1 ; in0 $end
$var wire 1 ] in1 $end
$var wire 1 ^ sel $end
$var wire 1 _ y $end
$upscope $end
$scope module m19 $end
$var wire 1 < in0 $end
$var wire 1 ` in1 $end
$var wire 1 a sel $end
$var wire 1 b y $end
$upscope $end
$scope module m2 $end
$var wire 1 c in0 $end
$var wire 1 d in1 $end
$var wire 1 e sel $end
$var wire 1 / y $end
$upscope $end
$scope module m20 $end
$var wire 1 = in0 $end
$var wire 1 G in1 $end
$var wire 1 f sel $end
$var wire 1 g y $end
$upscope $end
$scope module m21 $end
$var wire 1 > in0 $end
$var wire 1 H in1 $end
$var wire 1 h sel $end
$var wire 1 i y $end
$upscope $end
$scope module m22 $end
$var wire 1 ? in0 $end
$var wire 1 ; in1 $end
$var wire 1 j sel $end
$var wire 1 k y $end
$upscope $end
$scope module m23 $end
$var wire 1 @ in0 $end
$var wire 1 < in1 $end
$var wire 1 l sel $end
$var wire 1 m y $end
$upscope $end
$scope module m3 $end
$var wire 1 n in0 $end
$var wire 1 o in1 $end
$var wire 1 p sel $end
$var wire 1 . y $end
$upscope $end
$scope module m4 $end
$var wire 1 q in0 $end
$var wire 1 r in1 $end
$var wire 1 s sel $end
$var wire 1 - y $end
$upscope $end
$scope module m5 $end
$var wire 1 t in0 $end
$var wire 1 u in1 $end
$var wire 1 v sel $end
$var wire 1 , y $end
$upscope $end
$scope module m6 $end
$var wire 1 w in0 $end
$var wire 1 x in1 $end
$var wire 1 y sel $end
$var wire 1 + y $end
$upscope $end
$scope module m7 $end
$var wire 1 z in0 $end
$var wire 1 { in1 $end
$var wire 1 | sel $end
$var wire 1 * y $end
$upscope $end
$scope module m8 $end
$var wire 1 9 in0 $end
$var wire 1 } in1 $end
$var wire 1 ~ sel $end
$var wire 1 ) y $end
$upscope $end
$scope module m9 $end
$var wire 1 : in0 $end
$var wire 1 !" in1 $end
$var wire 1 "" sel $end
$var wire 1 ( y $end
$upscope $end
$upscope $end
$upscope $end
$enddefinitions $end
$comment Show the parameter values. $end
$dumpall
$end
#0
$dumpvars
x""
0!"
x~
0}
x|
x{
xz
xy
xx
xw
xv
xu
xt
xs
xr
xq
xp
xo
xn
xm
xl
xk
xj
xi
xh
xg
xf
xe
xd
xc
xb
xa
0`
x_
x^
0]
x\
x[
0Z
xY
xX
0W
xV
xU
xT
xS
xR
xQ
xP
xO
xN
xM
0L
xK
bx J
bx I
xH
xG
xF
xE
xD
xC
xB
xA
x@
x?
x>
x=
x<
x;
x:
x9
bx 8
x7
x6
x5
x4
x3
x2
x1
x0
x/
x.
x-
x,
x+
x*
x)
x(
bx '
bx &
bx %
1$
bx #
0"
bx !
$end
#10
00
01
02
03
04
0(
05
0)
0b
0m
0_
0k
0\
0i
0Y
b0 !
b0 8
0g
0~
0""
0Q
0R
0S
0T
0U
0V
0X
0[
0^
0a
0f
0h
0j
0l
0F
0E
0D
0C
0B
0A
0:
09
b0 I
0@
0?
0>
0=
0<
0;
0H
0G
b0 J
1"
#20
0"
#25
07
16
1/
1.
1-
1,
1+
1*
1M
1P
1e
1p
1s
1v
1y
1|
1K
1N
1O
1c
1d
1n
1o
1q
1r
1t
1u
1w
1x
1z
1{
b1 %
b1 '
b11111111 #
b11111111 &
0$
#30
10
11
12
13
14
15
1(
1F
1E
1D
1C
1B
1A
1:
b1 I
1"
#40
0"
#45
17
06
0.
0,
0*
1/
1-
1+
0M
0P
0e
0p
0s
0v
0y
0|
0N
0d
0n
0r
0t
0x
0z
b10 %
b10 '
b1010101 #
b1010101 &
#50
00
02
04
0(
0)
1m
1k
1i
1g
1b
1_
b11111110 !
b11111110 8
1\
1~
1""
1Q
1R
1S
1T
1U
1V
0F
0D
0B
0:
19
b10 I
1@
1?
1>
1=
1<
1;
1H
b1 J
1"
#60
0"
#65
16
1.
1,
1*
1N
1d
1n
1r
1t
1x
1z
b100 %
b100 '
b11111111 #
b11111111 &
#70
1)
1(
14
12
10
15
13
11
0m
0i
0b
b1010100 !
b1010100 8
0\
0~
0""
0Q
0R
0S
0T
0U
0V
0@
0>
0<
0H
b10 J
1F
1D
1B
1:
b100 I
1"
#80
0"
#85
06
0.
0,
0*
0N
0d
0n
0r
0t
0x
0z
b10 %
b10 '
b1010101 #
b1010101 &
#90
0)
0_
00
02
04
0(
0b
1m
0\
1i
b11110000 !
b11110000 8
0Y
1~
1""
1Q
1R
1S
1T
1U
1V
1X
1[
1^
1a
1f
1h
1j
1l
0F
0D
0B
0:
b10 I
1@
1>
1<
1H
1G
b100 J
1"
#100
0"
#110
1_
1k
0m
0i
b1010100 !
b1010100 8
1g
0X
0[
0^
0a
0f
0h
0j
0l
0@
0>
0<
0H
0G
b10 J
1"
